\relax 
\newlabel{exp}{{1}{1}}
\@writefile{lof}{\contentsline {figure}{\numberline {1}{\ignorespaces  Plot of numerical implementation as described above, versus the standard implementation found in the header math.h}}{1}{}\protected@file@percent }
\newlabel{fig:pyxplot}{{1}{1}}
\gdef \@abspage@last{1}
