c_0 = 4.95867
 c_1 lambda = -0.171379
, My T_1/2 = 4.04452 
 Actual T_1/2 = 3.63
Difference from our calculation to real value: 4.04452 - 3.63 = 0.414518
This is not within the estimated uncertainty, see covariance matrix.
Note: covariance matrix is in out.txt
